SrcMac,DstMac,SrcAddr,Sport,DstAddr,Dport,Proto,Mean,TotPkts,SrcPkts,DstPkts,TotBytes,SrcBytes,DstBytes,Rate,State,Dur
b8:ac:6f:1d:1f:6c,00:c1:b1:14:eb:31,192.168.10.9,63569,204.154.111.111,80,6,5.068406,8,5,3,2198,988,1210,1.381105,sSEfF,5.068406
b8:ac:6f:1d:1f:6c,00:c1:b1:14:eb:31,192.168.10.9,63171,23.15.4.16,80,6,4.883507,5,3,2,306,180,126,0.819084,sSEfF,4.883507
b8:ac:6f:1d:1f:6c,00:c1:b1:14:eb:31,192.168.10.9,63575,69.4.95.11,80,6,5.001527,31,17,14,12900,8343,4557,5.998168,sSE,5.001527
b8:ac:6f:1d:1f:6c,00:c1:b1:14:eb:31,192.168.10.9,63576,195.142.107.70,443,6,4.175380,67,26,41,37614,9953,27661,15.806944,sSE,4.175380
b8:ac:6f:1d:1f:6c,00:c1:b1:14:eb:31,192.168.10.9,62589,172.217.9.226,443,6,4.420903,35,11,24,3648,1475,2173,7.690736,sSE,4.420903
b8:ac:6f:1d:1f:6c,00:c1:b1:14:eb:31,192.168.10.9,63577,195.142.107.70,443,6,4.953577,42,18,24,14004,8834,5170,8.276847,sSE,4.953577
b8:ac:6f:1d:1f:6c,00:c1:b1:14:eb:31,192.168.10.9,63578,195.142.107.70,443,6,4.952013,42,18,24,14244,8786,5458,8.279461,sSE,4.952013
b8:ac:6f:1d:1f:6c,00:c1:b1:14:eb:31,192.168.10.9,63193,172.217.12.202,443,6,1.644883,13,6,7,1456,692,764,7.295352,sSE,1.644883
b8:ac:6f:1d:1f:6c,00:c1:b1:14:eb:31,192.168.10.9,63579,195.142.107.70,443,6,4.926455,40,17,23,14188,8806,5382,7.916443,sSE,4.926455
b8:ac:6f:1d:1f:6c,00:c1:b1:14:eb:31,192.168.10.9,63580,195.142.107.70,443,6,4.925683,45,19,26,15606,9773,5833,8.932772,sSE,4.925683
b8:ac:6f:1d:1f:6c,00:c1:b1:14:eb:31,192.168.10.9,63581,195.142.107.70,443,6,4.833327,39,17,22,12834,7959,4875,7.862080,sSE,4.833327
b8:ac:6f:1d:1f:6c,00:c1:b1:14:eb:31,192.168.10.9,63039,198.54.12.145,80,6,4.990753,6,2,4,2052,1574,478,1.001853,sSE,4.990753
b8:ac:6f:1d:1f:6c,00:c1:b1:14:eb:31,192.168.10.9,63044,198.54.12.145,80,6,4.978998,6,2,4,2026,1574,452,1.004218,sSE,4.978998
b8:ac:6f:1d:1f:6c,00:c1:b1:14:eb:31,192.168.10.9,63045,198.54.12.145,80,6,4.310251,6,2,4,594,120,474,1.160025,sSE,4.310251
b8:ac:6f:1d:1f:6c,00:c1:b1:14:eb:31,192.168.10.9,63582,172.217.9.234,443,6,0.219296,25,12,13,7389,1472,5917,109.441124,sSE,0.219296
b8:ac:6f:1d:1f:6c,00:c1:b1:14:eb:31,192.168.10.9,63072,52.3.119.216,80,6,4.928278,5,2,3,2379,997,1382,0.811643,sSE,4.928278
b8:ac:6f:1d:1f:6c,00:c1:b1:14:eb:31,192.168.10.9,63583,216.58.219.226,443,6,0.197407,23,11,12,6509,1405,5104,111.444878,sSE,0.197407
b8:ac:6f:1d:1f:6c,00:c1:b1:14:eb:31,192.168.10.9,63584,74.119.118.100,443,6,0.374842,15,7,8,7766,1987,5779,37.349072,sSE,0.374842
b8:ac:6f:1d:1f:6c,00:c1:b1:14:eb:31,192.168.10.9,63585,74.119.118.100,443,6,0.374131,13,6,7,5344,920,4424,32.074326,sSE,0.374131
b8:ac:6f:1d:1f:6c,00:c1:b1:14:eb:31,192.168.10.9,63586,37.140.238.33,443,6,0.323611,13,7,6,5916,1231,4685,37.081558,sSE,0.323611
b8:ac:6f:1d:1f:6c,18:66:da:9b:e3:7d,192.168.10.9,60269,192.168.10.3,53,17,0.000007,4,2,2,496,168,328,428571.437500,CON,0.000007
b8:ac:6f:1d:1f:6c,18:66:da:9b:e3:7d,192.168.10.9,56810,192.168.10.3,53,17,0.000010,4,2,2,496,168,328,300000.000000,CON,0.000010
b8:ac:6f:36:04:e3,00:c1:b1:14:eb:31,192.168.10.12,60596,52.45.52.126,443,6,0.050544,2,1,1,132,66,66,19.784742,sSE,0.050544
b8:ac:6f:1d:1f:6c,00:c1:b1:14:eb:31,192.168.10.9,63444,69.169.85.7,80,6,0.022834,2,1,1,120,60,60,43.794342,sSE,0.022834
b8:ac:6f:1d:1f:6c,00:c1:b1:14:eb:31,192.168.10.9,63119,74.121.138.156,443,6,0.024151,2,1,1,126,60,66,41.406155,sSE,0.024151
00:23:ae:9b:ad:b3,00:c1:b1:14:eb:31,192.168.10.19,123,144.217.240.204,123,17,0.016387,2,1,1,180,90,90,61.023979,CON,0.016387
b8:ac:6f:1d:1f:6c,00:c1:b1:14:eb:31,192.168.10.9,62785,52.206.85.2,80,6,0.050169,2,1,1,126,60,66,19.932629,sSE,0.050169
b8:ac:6f:1d:1f:6c,18:66:da:9b:e3:7d,192.168.10.9,49580,192.168.10.3,53,17,0.079325,4,2,2,418,154,264,37.819099,CON,0.079325
18:66:da:9b:e3:7d,00:c1:b1:14:eb:31,192.168.10.3,60279,192.168.10.1,53,17,0.078897,2,1,1,214,99,115,12.674753,CON,0.078897
b8:ac:6f:1d:1f:6c,18:66:da:9b:e3:7d,192.168.10.9,60515,192.168.10.3,53,17,0.060438,4,2,2,416,160,256,49.637646,CON,0.060438
18:66:da:9b:e3:7d,00:c1:b1:14:eb:31,192.168.10.3,61441,192.168.10.1,53,17,0.060022,2,1,1,200,92,108,16.660557,CON,0.060022
b8:ac:6f:1d:1f:6c,00:c1:b1:14:eb:31,192.168.10.9,62605,157.240.2.25,443,6,2.982745,41,21,20,22483,1804,20679,13.410466,sSE,2.982745
b8:ac:6f:1d:1f:6c,00:c1:b1:14:eb:31,192.168.10.9,63587,205.234.175.175,443,6,1.860163,25,10,15,3924,1665,2259,12.902096,sSE,1.860163
b8:ac:6f:1d:1f:6c,18:66:da:9b:e3:7d,192.168.10.9,53952,192.168.10.3,53,17,0.069641,4,2,2,418,154,264,43.078072,CON,0.069641
b8:ac:6f:1d:1f:6c,18:66:da:9b:e3:7d,192.168.10.9,56389,192.168.10.3,53,17,0.000165,4,2,2,356,162,194,18181.818359,CON,0.000165
b8:ac:6f:1d:1f:6c,18:66:da:9b:e3:7d,192.168.10.9,54713,192.168.10.3,53,17,0.023715,4,2,2,380,162,218,126.502213,CON,0.023715
18:66:da:9b:e3:7d,00:c1:b1:14:eb:31,192.168.10.3,60815,192.168.10.1,53,17,0.023349,2,1,1,212,92,120,42.828388,CON,0.023349
b8:ac:6f:1d:1f:6c,18:66:da:9b:e3:7d,192.168.10.9,58694,192.168.10.3,53,17,0.000159,4,2,2,384,176,208,18867.923828,CON,0.000159
b8:ac:6f:1d:1f:6c,18:66:da:9b:e3:7d,192.168.10.9,52249,192.168.10.3,53,17,0.000159,4,2,2,418,154,264,18867.923828,CON,0.000159
b8:ac:6f:1d:1f:6c,00:c1:b1:14:eb:31,192.168.10.9,63588,94.31.29.254,443,6,0.428147,19,10,9,5421,1366,4055,42.041637,sSE,0.428147
b8:ac:6f:1d:1f:6c,00:c1:b1:14:eb:31,192.168.10.9,63403,72.249.192.49,80,6,0.017046,2,1,1,126,60,66,58.664787,sSE,0.017046
b8:ac:6f:1d:1f:6c,18:66:da:9b:e3:7d,192.168.10.9,60051,192.168.10.3,53,17,0.024772,4,2,2,394,152,242,121.104477,CON,0.024772
18:66:da:9b:e3:7d,00:c1:b1:14:eb:31,192.168.10.3,62354,192.168.10.1,53,17,0.024407,2,1,1,212,98,114,40.971855,CON,0.024407
b8:ac:6f:1d:1f:6c,00:c1:b1:14:eb:31,192.168.10.9,62607,157.240.2.35,443,6,2.150707,51,26,25,23789,3097,20692,23.248169,sSE,2.150707
00:23:ae:9b:8a:bf,00:c1:b1:14:eb:31,192.168.10.16,36768,216.200.232.14,80,6,0.034999,2,1,1,132,66,66,28.572243,sSE,0.034999
b8:ac:6f:1d:1f:6c,18:66:da:9b:e3:7d,192.168.10.9,63094,192.168.10.3,53,17,0.000155,4,2,2,380,174,206,19354.837891,CON,0.000155
b8:ac:6f:1d:1f:6c,18:66:da:9b:e3:7d,192.168.10.9,50483,192.168.10.3,53,17,0.060252,4,2,2,404,174,230,49.790878,CON,0.060252
18:66:da:9b:e3:7d,00:c1:b1:14:eb:31,192.168.10.3,60328,192.168.10.1,53,17,0.059833,2,1,1,224,98,126,16.713184,CON,0.059833
b8:ac:6f:1d:1f:6c,18:66:da:9b:e3:7d,192.168.10.9,58814,192.168.10.3,53,17,0.000228,4,2,2,352,146,206,13157.894531,CON,0.000228
b8:ac:6f:1d:1f:6c,18:66:da:9b:e3:7d,192.168.10.9,53678,192.168.10.3,53,17,0.000182,4,2,2,352,146,206,16483.515625,CON,0.000182
b8:ac:6f:1d:1f:6c,18:66:da:9b:e3:7d,192.168.10.9,64427,192.168.10.3,53,17,0.000260,4,2,2,352,146,206,11538.461914,CON,0.000260
00:19:b9:0a:69:f1,00:c1:b1:14:eb:31,192.168.10.50,123,129.6.15.29,123,17,0.030161,2,1,1,180,90,90,33.155399,CON,0.030161
00:19:b9:0a:69:f1,00:c1:b1:14:eb:31,192.168.10.50,123,69.167.160.102,123,17,0.043074,2,1,1,180,90,90,23.215860,CON,0.043074
b8:ac:6f:1d:1f:6c,18:66:da:9b:e3:7d,192.168.10.9,50398,192.168.10.3,53,17,0.000165,4,2,2,352,146,206,18181.818359,CON,0.000165
b8:ac:6f:1d:1f:6c,18:66:da:9b:e3:7d,192.168.10.9,55359,192.168.10.3,53,17,0.000154,4,2,2,352,146,206,19480.519531,CON,0.000154
b8:ac:6f:1d:1f:6c,18:66:da:9b:e3:7d,192.168.10.9,54831,192.168.10.3,53,17,0.000193,4,2,2,352,146,206,15544.041016,CON,0.000193
00:23:ae:9b:95:67,00:c1:b1:14:eb:31,192.168.10.17,45106,72.21.91.29,80,6,0.023530,2,1,1,132,66,66,42.498936,sSE,0.023530
b8:ac:6f:1d:1f:6c,00:c1:b1:14:eb:31,192.168.10.9,62601,172.217.10.66,443,6,0.368015,17,7,10,9854,1345,8509,43.476490,sSE,0.368015
b8:ac:6f:1d:1f:6c,00:c1:b1:14:eb:31,192.168.10.9,62858,35.167.226.133,80,6,0.083461,2,1,1,126,60,66,11.981644,sSE,0.083461
00:23:ae:9b:95:67,00:c1:b1:14:eb:31,192.168.10.17,44932,23.208.162.9,443,6,0.024323,2,1,1,132,66,66,41.113350,sSE,0.024323
b8:ac:6f:1d:1f:6c,18:66:da:9b:e3:7d,192.168.10.9,49991,192.168.10.3,53,17,0.000165,4,2,2,456,154,302,18181.818359,CON,0.000165
b8:ac:6f:1d:1f:6c,00:c1:b1:14:eb:31,192.168.10.9,63589,94.31.29.249,443,6,0.133957,19,10,9,5484,1406,4078,134.371475,sSE,0.133957
b8:ac:6f:1d:1f:6c,18:66:da:9b:e3:7d,192.168.10.9,64919,192.168.10.3,53,17,0.078225,4,2,2,406,150,256,38.350910,CON,0.078225
18:66:da:9b:e3:7d,00:c1:b1:14:eb:31,192.168.10.3,62424,192.168.10.1,53,17,0.077832,2,1,1,210,97,113,12.848186,CON,0.077832
b8:ac:6f:1d:1f:6c,18:66:da:9b:e3:7d,192.168.10.9,58681,192.168.10.3,53,17,0.000169,4,2,2,456,154,302,17751.478516,CON,0.000169
00:23:ae:9b:95:67,00:c1:b1:14:eb:31,192.168.10.17,41272,104.97.73.5,443,6,0.023542,2,1,1,132,66,66,42.477276,sSE,0.023542
b8:ac:6f:1d:1f:6c,18:66:da:9b:e3:7d,192.168.10.9,58671,192.168.10.3,53,17,0.067134,4,2,2,406,150,256,44.686745,CON,0.067134
b8:ac:6f:1d:1f:6c,18:66:da:9b:e3:7d,192.168.10.9,52248,192.168.10.3,53,17,0.000147,4,2,2,428,182,246,20408.164062,CON,0.000147
b8:ac:6f:1d:1f:6c,18:66:da:9b:e3:7d,192.168.10.9,61545,192.168.10.3,53,17,0.000205,4,2,2,456,154,302,14634.146484,CON,0.000205
b8:ac:6f:1d:1f:6c,00:c1:b1:14:eb:31,192.168.10.9,63078,198.54.12.145,443,6,0.059093,2,1,1,120,60,60,16.922478,sSE,0.059093
b8:ac:6f:1d:1f:6c,18:66:da:9b:e3:7d,192.168.10.9,51019,192.168.10.3,53,17,0.000197,4,2,2,376,172,204,15228.426758,CON,0.000197
b8:ac:6f:1d:1f:6c,18:66:da:9b:e3:7d,192.168.10.9,63497,192.168.10.3,53,17,0.000236,4,2,2,406,150,256,12711.864258,CON,0.000236
b8:ac:6f:1d:1f:6c,00:c1:b1:14:eb:31,192.168.10.9,63590,94.31.29.64,443,6,0.134561,15,8,7,4671,1013,3658,104.042030,sSE,0.134561
00:19:b9:0a:69:f1,00:c1:b1:14:eb:31,192.168.10.50,,192.168.10.1,,2054,0.000484,2,1,1,120,60,60,2066.115723,CON,0.000484
b8:ac:6f:1d:1f:6c,00:c1:b1:14:eb:31,192.168.10.9,63065,52.2.56.173,80,6,4.814889,8,4,4,2741,1106,1635,1.453824,sSE,4.814889
b8:ac:6f:1d:1f:6c,00:c1:b1:14:eb:31,192.168.10.9,63040,198.54.12.145,80,6,2.660134,6,2,4,572,120,452,1.879604,sSE,2.660134
00:1e:4f:d4:ca:28,00:c1:b1:14:eb:31,192.168.10.15,50039,209.85.201.156,443,6,0.078805,4,2,2,320,160,160,38.068649,sSE,0.078805
b8:ac:6f:1d:1f:6c,00:c1:b1:14:eb:31,192.168.10.9,63108,129.146.14.101,80,6,0.087380,2,1,1,126,60,66,11.444266,sSE,0.087380
b8:ac:6f:1d:1f:6c,18:66:da:9b:e3:7d,192.168.10.9,55008,192.168.10.3,53,17,0.049750,4,2,2,458,170,288,60.301506,CON,0.049750
18:66:da:9b:e3:7d,00:c1:b1:14:eb:31,192.168.10.3,61073,192.168.10.1,53,17,0.049293,2,1,1,222,103,119,20.286856,CON,0.049293
b8:ac:6f:1d:1f:6c,00:c1:b1:14:eb:31,192.168.10.9,63213,23.194.108.16,443,6,0.023984,2,1,1,126,60,66,41.694462,sSE,0.023984
b8:ac:6f:1d:1f:6c,18:66:da:9b:e3:7d,192.168.10.9,58850,192.168.10.3,53,17,0.050892,4,2,2,406,162,244,58.948360,CON,0.050892
18:66:da:9b:e3:7d,00:c1:b1:14:eb:31,192.168.10.3,62515,192.168.10.1,53,17,0.050496,2,1,1,225,92,133,19.803549,CON,0.050496
b8:ac:6f:1d:1f:6c,00:c1:b1:14:eb:31,192.168.10.9,63361,173.239.42.221,443,6,0.088665,2,1,1,126,60,66,11.278407,sSE,0.088665
b8:ac:6f:1d:1f:6c,00:c1:b1:14:eb:31,192.168.10.9,63204,152.163.56.2,443,6,0.028377,2,1,1,120,60,60,35.239807,sSE,0.028377
b8:ac:6f:1d:1f:6c,18:66:da:9b:e3:7d,192.168.10.9,58742,192.168.10.3,53,17,0.000227,4,2,2,400,184,216,13215.859375,CON,0.000227
b8:ac:6f:1d:1f:6c,18:66:da:9b:e3:7d,192.168.10.9,58996,192.168.10.3,53,17,0.000245,4,2,2,352,146,206,12244.897461,CON,0.000245
b8:ac:6f:1d:1f:6c,18:66:da:9b:e3:7d,192.168.10.9,62892,192.168.10.3,53,17,0.000160,4,2,2,352,146,206,18750.000000,CON,0.000160
b8:ac:6f:1d:1f:6c,00:c1:b1:14:eb:31,192.168.10.9,62611,172.217.10.132,443,6,5.044222,48,21,27,5093,2632,2461,9.317592,sSE,5.044222
b8:ac:6f:1d:1f:6c,18:66:da:9b:e3:7d,192.168.10.9,58236,192.168.10.3,53,17,0.000007,4,2,2,352,146,206,428571.437500,CON,0.000007
b8:ac:6f:1d:1f:6c,18:66:da:9b:e3:7d,192.168.10.9,63011,192.168.10.3,53,17,0.000012,4,2,2,352,146,206,249999.984375,CON,0.000012
b8:ac:6f:1d:1f:6c,00:c1:b1:14:eb:31,192.168.10.9,62610,172.217.9.226,443,6,2.402450,28,12,16,2787,1418,1369,11.238527,sSE,2.402450
b8:ac:6f:1d:1f:6c,00:c1:b1:14:eb:31,192.168.10.9,63591,216.58.219.226,443,6,5.083823,47,22,25,11193,4757,6436,9.048308,sSE,5.083823
b8:ac:6f:1d:1f:6c,00:c1:b1:14:eb:31,192.168.10.9,63592,74.119.118.86,443,6,5.080760,41,20,21,18834,3870,14964,7.872838,sSE,5.080760
b8:ac:6f:1d:1f:6c,00:c1:b1:14:eb:31,192.168.10.9,63593,69.4.95.11,80,6,4.511231,40,24,16,15356,10062,5294,8.645090,sSE,4.511231
b8:ac:6f:1d:1f:6c,00:c1:b1:14:eb:31,192.168.10.9,63594,69.4.95.11,80,6,4.534118,42,26,16,16244,10947,5297,9.042552,sSE,4.534118
b8:ac:6f:1d:1f:6c,00:c1:b1:14:eb:31,192.168.10.9,63595,69.4.95.11,80,6,4.533932,39,24,15,14986,10056,4930,8.381246,sSE,4.533932
b8:ac:6f:1d:1f:6c,00:c1:b1:14:eb:31,192.168.10.9,63596,69.4.95.11,80,6,4.533936,39,24,15,15027,10098,4929,8.381239,sSE,4.533936
b8:ac:6f:1d:1f:6c,00:c1:b1:14:eb:31,192.168.10.9,63211,52.6.174.16,443,6,0.051186,2,1,1,126,60,66,19.536592,sSE,0.051186
b8:ac:6f:1d:1f:6c,00:c1:b1:14:eb:31,192.168.10.9,63033,192.35.249.124,80,6,3.471142,20,7,13,10631,420,10211,5.473703,sSE,3.471142
b8:ac:6f:1d:1f:6c,00:c1:b1:14:eb:31,192.168.10.9,63597,69.4.95.11,80,6,4.573499,41,25,16,16024,10722,5302,8.746038,sSE,4.573499
b8:ac:6f:1d:1f:6c,00:c1:b1:14:eb:31,192.168.10.9,63569,204.154.111.111,80,6,0.032903,2,1,1,120,60,60,30.392365,sSEfF,0.032903
b8:ac:6f:1d:1f:6c,18:66:da:9b:e3:7d,192.168.10.9,55997,192.168.10.3,53,17,0.000169,4,2,2,352,146,206,17751.478516,CON,0.000169
b8:ac:6f:1d:1f:6c,18:66:da:9b:e3:7d,192.168.10.9,54336,192.168.10.3,53,17,0.000146,4,2,2,352,146,206,20547.945312,CON,0.000146
00:1e:4f:d4:ca:28,00:19:b9:0a:69:f1,192.168.10.15,50088,192.168.10.50,21,6,0.293909,50,22,28,3468,1436,2032,166.718262,sSEfF,0.293909
00:1e:4f:d4:ca:28,00:c1:b1:14:eb:31,192.168.10.15,50073,172.217.10.142,80,6,0.036896,2,1,1,126,60,66,27.103209,sSE,0.036896
00:23:ae:9b:95:67,00:c1:b1:14:eb:31,192.168.10.17,44934,23.208.162.9,443,6,0.022981,2,1,1,132,66,66,43.514210,sSE,0.022981
00:23:ae:9b:95:67,00:c1:b1:14:eb:31,192.168.10.17,44935,23.208.162.9,443,6,0.023196,2,1,1,132,66,66,43.110882,sSE,0.023196
00:23:ae:9b:95:67,00:c1:b1:14:eb:31,192.168.10.17,44927,23.208.162.9,443,6,0.023197,2,1,1,132,66,66,43.109020,sSE,0.023197
00:23:ae:9b:95:67,00:c1:b1:14:eb:31,192.168.10.17,54059,172.217.11.40,443,6,0.036273,2,1,1,132,66,66,27.568716,sSE,0.036273
00:19:b9:0a:69:f1,18:66:da:9b:e3:7d,192.168.10.50,52104,192.168.10.3,3268,6,0.000401,6,4,2,1346,1070,276,12468.828125,sSE,0.000401
00:19:b9:0a:69:f1,18:66:da:9b:e3:7d,192.168.10.50,53120,192.168.10.3,389,6,0.000351,6,4,2,1834,1070,764,14245.014648,sSE,0.000351
00:23:ae:9b:95:67,00:c1:b1:14:eb:31,192.168.10.17,44940,104.97.135.177,443,6,0.023026,2,1,1,132,66,66,43.429165,sSE,0.023026
00:23:ae:9b:95:67,00:c1:b1:14:eb:31,192.168.10.17,44933,23.208.162.9,443,6,0.023188,2,1,1,132,66,66,43.125755,sSE,0.023188
00:1e:4f:d4:ca:28,00:19:b9:0a:69:f1,192.168.10.15,50089,192.168.10.50,14908,6,0.139702,24,14,10,9620,9008,612,164.636139,sSEf,0.139702
00:23:ae:9b:8a:bf,00:c1:b1:14:eb:31,192.168.10.16,37486,216.200.232.14,443,6,0.035129,2,1,1,132,66,66,28.466509,sSE,0.035129
00:19:b9:0a:69:f1,00:c1:b1:14:eb:31,192.168.10.50,123,144.217.240.204,123,17,0.016255,2,1,1,180,90,90,61.519531,CON,0.016255
00:19:b9:0a:69:f1,00:c1:b1:14:eb:31,192.168.10.50,123,154.16.245.246,123,17,0.066559,2,1,1,180,90,90,15.024263,CON,0.066559
b8:ac:6f:1d:1f:6c,18:66:da:9b:e3:7d,192.168.10.9,65313,192.168.10.3,53,17,0.000234,4,2,2,352,146,206,12820.512695,CON,0.000234
b8:ac:6f:1d:1f:6c,18:66:da:9b:e3:7d,192.168.10.9,62827,192.168.10.3,53,17,0.000011,4,2,2,352,146,206,272727.281250,CON,0.000011
00:23:ae:9b:95:67,00:c1:b1:14:eb:31,192.168.10.17,44949,104.97.135.177,443,6,0.023461,2,1,1,132,66,66,42.623932,sSE,0.023461
00:23:ae:9b:95:67,00:c1:b1:14:eb:31,192.168.10.17,44948,104.97.135.177,443,6,0.023336,2,1,1,132,66,66,42.852245,sSE,0.023336
b8:ac:6f:1d:1f:6c,00:c1:b1:14:eb:31,192.168.10.9,63423,152.163.56.2,80,6,0.028472,2,1,1,120,60,60,35.122223,sSE,0.028472
b8:ac:6f:1d:1f:6c,18:66:da:9b:e3:7d,192.168.10.9,54010,192.168.10.3,53,17,0.000191,4,2,2,352,146,206,15706.806641,CON,0.000191
00:1e:4f:d4:ca:28,00:c1:b1:14:eb:31,192.168.10.15,50064,96.16.199.170,443,6,0.023394,2,1,1,126,60,66,42.746002,sSE,0.023394
00:1e:4f:d4:ca:28,00:c1:b1:14:eb:31,192.168.10.15,50065,96.16.199.170,443,6,0.023883,2,1,1,126,60,66,41.870789,sSE,0.023883
00:1e:4f:d4:ca:28,00:c1:b1:14:eb:31,192.168.10.15,50063,96.16.199.170,443,6,0.023731,2,1,1,126,60,66,42.138973,sSE,0.023731
00:1e:4f:d4:ca:28,00:c1:b1:14:eb:31,192.168.10.15,50062,96.16.199.170,443,6,0.023455,2,1,1,126,60,66,42.634834,sSE,0.023455
00:1e:4f:d4:ca:28,00:c1:b1:14:eb:31,192.168.10.15,50059,96.16.199.170,443,6,0.023644,2,1,1,126,60,66,42.294029,sSE,0.023644
00:1e:4f:d4:ca:28,00:c1:b1:14:eb:31,192.168.10.15,50061,96.16.199.170,443,6,0.024139,2,1,1,126,60,66,41.426735,sSE,0.024139
b8:ac:6f:1d:1f:6c,00:c1:b1:14:eb:31,192.168.10.9,63439,52.55.84.181,80,6,0.050568,2,1,1,126,60,66,19.775352,sSE,0.050568
b8:ac:6f:1d:1f:6c,00:c1:b1:14:eb:31,192.168.10.9,63428,52.21.80.181,80,6,0.050556,2,1,1,126,60,66,19.780046,sSE,0.050556
b8:ac:6f:1d:1f:6c,00:c1:b1:14:eb:31,192.168.10.9,63440,34.200.58.169,80,6,0.050290,2,1,1,126,60,66,19.884668,sSE,0.050290
b8:ac:6f:1d:1f:6c,00:c1:b1:14:eb:31,192.168.10.9,63422,54.165.89.238,80,6,0.050283,2,1,1,126,60,66,19.887438,sSE,0.050283
b8:ac:6f:1d:1f:6c,18:66:da:9b:e3:7d,192.168.10.9,55232,192.168.10.3,53,17,0.023760,4,2,2,352,160,192,126.262627,CON,0.023760
b8:ac:6f:1d:1f:6c,18:66:da:9b:e3:7d,192.168.10.9,51824,192.168.10.3,53,17,0.100051,4,2,2,392,142,250,29.984707,CON,0.100051
18:66:da:9b:e3:7d,00:c1:b1:14:eb:31,192.168.10.3,60595,192.168.10.1,53,17,0.023508,2,1,1,198,91,107,42.538712,CON,0.023508
18:66:da:9b:e3:7d,00:c1:b1:14:eb:31,192.168.10.3,60126,192.168.10.1,53,17,0.099829,2,1,1,218,82,136,10.017129,CON,0.099829
b8:ac:6f:1d:1f:6c,18:66:da:9b:e3:7d,192.168.10.9,51236,192.168.10.3,53,17,0.049970,4,2,2,430,176,254,60.036022,CON,0.049970
18:66:da:9b:e3:7d,00:c1:b1:14:eb:31,192.168.10.3,61346,192.168.10.1,53,17,0.049757,2,1,1,237,99,138,20.097675,CON,0.049757
b8:ac:6f:1d:1f:6c,18:66:da:9b:e3:7d,192.168.10.9,56198,192.168.10.3,53,17,0.000125,4,2,2,352,146,206,23999.998047,CON,0.000125
b8:ac:6f:1d:1f:6c,18:66:da:9b:e3:7d,192.168.10.9,57328,192.168.10.3,53,17,0.000193,4,2,2,398,160,238,15544.041016,CON,0.000193
b8:ac:6f:1d:1f:6c,18:66:da:9b:e3:7d,192.168.10.9,57666,192.168.10.3,53,17,0.000191,4,2,2,352,160,192,15706.806641,CON,0.000191
b8:ac:6f:1d:1f:6c,18:66:da:9b:e3:7d,192.168.10.9,49519,192.168.10.3,53,17,0.000197,4,2,2,352,146,206,15228.426758,CON,0.000197
b8:ac:6f:1d:1f:6c,00:c1:b1:14:eb:31,192.168.10.9,63435,204.2.255.232,80,6,0.069654,2,1,1,120,60,60,14.356677,sSE,0.069654
b8:ac:6f:1d:1f:6c,00:c1:b1:14:eb:31,192.168.10.9,62625,172.217.10.130,443,6,4.948167,61,26,35,9279,5944,3335,12.125703,sSE,4.948167
b8:ac:6f:1d:1f:6c,00:c1:b1:14:eb:31,192.168.10.9,63437,52.41.90.231,80,6,0.084447,2,1,1,126,60,66,11.841747,sSE,0.084447
b8:ac:6f:1d:1f:6c,18:66:da:9b:e3:7d,192.168.10.9,65303,192.168.10.3,53,17,0.154310,4,2,2,442,144,298,19.441383,CON,0.154310
18:66:da:9b:e3:7d,00:c1:b1:14:eb:31,192.168.10.3,60213,192.168.10.1,53,17,0.154070,2,1,1,227,84,143,6.490556,CON,0.154070
b8:ac:6f:1d:1f:6c,18:66:da:9b:e3:7d,192.168.10.9,49723,192.168.10.3,53,17,0.000200,4,2,2,368,168,200,15000.000000,CON,0.000200
b8:ac:6f:1d:1f:6c,00:c1:b1:14:eb:31,192.168.10.9,62484,172.217.6.230,443,6,3.934683,62,21,41,38180,1420,36760,15.503155,E,3.934683
b8:ac:6f:1d:1f:6c,18:66:da:9b:e3:7d,192.168.10.9,56159,192.168.10.3,53,17,0.049860,4,2,2,392,168,224,60.168472,CON,0.049860
b8:ac:6f:1d:1f:6c,18:66:da:9b:e3:7d,192.168.10.9,59089,192.168.10.3,53,17,0.024103,4,2,2,450,164,286,124.465828,CON,0.024103
18:66:da:9b:e3:7d,00:c1:b1:14:eb:31,192.168.10.3,60286,192.168.10.1,53,17,0.049508,2,1,1,218,95,123,20.198755,CON,0.049508
b8:ac:6f:1d:1f:6c,18:66:da:9b:e3:7d,192.168.10.9,54825,192.168.10.3,53,17,0.061113,4,2,2,486,152,334,49.089394,CON,0.061113
18:66:da:9b:e3:7d,00:c1:b1:14:eb:31,192.168.10.3,62026,192.168.10.1,53,17,0.023707,2,1,1,226,105,121,42.181633,CON,0.023707
18:66:da:9b:e3:7d,00:c1:b1:14:eb:31,192.168.10.3,62204,192.168.10.1,53,17,0.060700,2,1,1,202,93,109,16.474464,CON,0.060700
b8:ac:6f:1d:1f:6c,18:66:da:9b:e3:7d,192.168.10.9,52379,192.168.10.3,53,17,0.000195,4,2,2,408,188,220,15384.615234,CON,0.000195
b8:ac:6f:1d:1f:6c,18:66:da:9b:e3:7d,192.168.10.9,51073,192.168.10.3,53,17,0.000140,4,2,2,360,164,196,21428.570312,CON,0.000140
b8:ac:6f:1d:1f:6c,00:c1:b1:14:eb:31,192.168.10.9,63424,54.76.90.156,80,6,0.102890,2,1,1,126,60,66,9.719117,sSE,0.102890
00:1e:4f:d4:ca:28,00:c1:b1:14:eb:31,192.168.10.15,50078,23.50.75.27,80,6,0.023266,2,1,1,126,60,66,42.981174,sSE,0.023266
00:23:ae:9b:95:67,00:c1:b1:14:eb:31,192.168.10.17,51350,172.217.3.110,443,6,0.036512,2,1,1,132,66,66,27.388256,sSE,0.036512
00:23:ae:9b:95:67,00:c1:b1:14:eb:31,192.168.10.17,58173,74.125.22.154,443,6,0.048497,2,1,1,132,66,66,20.619833,sSE,0.048497
00:23:ae:9b:95:67,00:c1:b1:14:eb:31,192.168.10.17,59477,172.217.10.70,443,6,0.036411,2,1,1,132,66,66,27.464230,sSE,0.036411
b8:ac:6f:1d:1f:6c,00:c1:b1:14:eb:31,192.168.10.9,63438,152.163.64.1,80,6,0.027999,2,1,1,120,60,60,35.715561,sSE,0.027999
b8:ac:6f:1d:1f:6c,18:66:da:9b:e3:7d,192.168.10.9,49878,192.168.10.3,53,17,0.000151,4,2,2,388,178,210,19867.548828,CON,0.000151
b8:ac:6f:1d:1f:6c,18:66:da:9b:e3:7d,192.168.10.9,64008,192.168.10.3,53,17,0.095956,4,2,2,488,178,310,31.264330,CON,0.095956
18:66:da:9b:e3:7d,00:c1:b1:14:eb:31,192.168.10.3,60693,192.168.10.1,53,17,0.095527,2,1,1,266,100,166,10.468245,CON,0.095527
00:23:ae:9b:95:67,00:c1:b1:14:eb:31,192.168.10.17,60217,23.208.79.206,443,6,0.023156,2,1,1,132,66,66,43.185352,sSE,0.023156
00:23:ae:9b:95:67,00:c1:b1:14:eb:31,192.168.10.17,60227,23.208.79.206,443,6,0.023129,2,1,1,132,66,66,43.235767,sSE,0.023129
00:23:ae:9b:95:67,00:c1:b1:14:eb:31,192.168.10.17,60225,23.208.79.206,443,6,0.023286,2,1,1,132,66,66,42.944260,sSE,0.023286
b8:ac:6f:1d:1f:6c,18:66:da:9b:e3:7d,192.168.10.9,49196,192.168.10.3,53,17,0.086736,4,2,2,502,154,348,34.587715,CON,0.086736
18:66:da:9b:e3:7d,00:c1:b1:14:eb:31,192.168.10.3,60483,192.168.10.1,53,17,0.086349,2,1,1,202,93,109,11.580910,CON,0.086349
00:23:ae:9b:95:67,00:c1:b1:14:eb:31,192.168.10.17,60228,23.208.79.206,443,6,0.023201,2,1,1,132,66,66,43.101589,sSE,0.023201
70:6e:6d:1d:bb:06,01:00:0c:cc:cc:cc,01:00:0c:cc:cc:cc,170,70:6e:6d:1d:bb:06,170,0,0.000000,1,1,0,457,457,0,0.000000,INT,0.000000
b8:ac:6f:1d:1f:6c,00:c1:b1:14:eb:31,192.168.10.9,63497,104.97.73.166,80,6,0.475622,47,23,24,35175,1680,33495,96.715462,sSE,0.475622
b8:ac:6f:1d:1f:6c,00:c1:b1:14:eb:31,192.168.10.9,63598,74.119.118.66,443,6,4.774722,27,11,16,8410,1225,7185,5.445343,sSE,4.774722
b8:ac:6f:1d:1f:6c,00:c1:b1:14:eb:31,192.168.10.9,63599,178.250.0.78,443,6,1.297546,12,6,6,5283,925,4358,8.477541,sSE,1.297546
b8:ac:6f:1d:1f:6c,18:66:da:9b:e3:7d,192.168.10.9,62585,192.168.10.3,53,17,0.000190,4,2,2,356,162,194,15789.473633,CON,0.000190
b8:ac:6f:1d:1f:6c,18:66:da:9b:e3:7d,192.168.10.9,60568,192.168.10.3,53,17,0.000298,4,2,2,356,162,194,10067.114258,CON,0.000298
00:23:ae:9b:95:67,00:c1:b1:14:eb:31,192.168.10.17,60224,23.208.79.206,443,6,0.023737,2,1,1,132,66,66,42.128323,sSE,0.023737
b8:ac:6f:1d:1f:6c,18:66:da:9b:e3:7d,192.168.10.9,50134,192.168.10.3,53,17,0.000154,4,2,2,352,146,206,19480.519531,CON,0.000154
b8:ac:6f:1d:1f:6c,18:66:da:9b:e3:7d,192.168.10.9,60980,192.168.10.3,53,17,0.000191,4,2,2,360,164,196,15706.806641,CON,0.000191
00:23:ae:9b:95:67,00:c1:b1:14:eb:31,192.168.10.17,60226,23.208.79.206,443,6,0.023141,2,1,1,132,66,66,43.213345,sSE,0.023141
b8:ac:6f:1d:1f:6c,18:66:da:9b:e3:7d,192.168.10.9,51940,192.168.10.3,53,17,0.000154,4,2,2,352,146,206,19480.519531,CON,0.000154
00:23:ae:9b:95:67,00:c1:b1:14:eb:31,192.168.10.17,55421,23.208.165.24,80,6,0.023034,2,1,1,132,66,66,43.414082,sSE,0.023034
b8:ac:6f:1d:1f:6c,00:c1:b1:14:eb:31,192.168.10.9,63556,107.22.220.201,443,6,4.923093,5,2,3,353,120,233,0.812497,sSEfF,4.923093
00:23:ae:9b:95:67,00:c1:b1:14:eb:31,192.168.10.17,50350,172.217.10.142,80,6,0.036740,2,1,1,132,66,66,27.218290,sSE,0.036740
b8:ac:6f:1d:1f:6c,00:c1:b1:14:eb:31,192.168.10.9,63600,38.65.20.26,443,6,2.923463,23,12,11,6222,1252,4970,7.525321,sSEfF,2.923463
b8:ac:6f:1d:1f:6c,00:c1:b1:14:eb:31,192.168.10.9,63601,38.65.20.26,443,6,2.870082,23,12,11,6721,1546,5175,7.665287,sSE,2.870082
00:23:ae:9b:95:67,00:c1:b1:14:eb:31,192.168.10.17,53536,216.104.218.225,443,6,0.034834,2,1,1,132,66,66,28.707584,sSE,0.034834
b8:ac:6f:1d:1f:6c,00:c1:b1:14:eb:31,192.168.10.9,63602,173.231.178.118,443,6,2.561716,16,8,8,8388,1231,7157,5.855450,sSE,2.561716
00:23:ae:9b:95:67,00:c1:b1:14:eb:31,192.168.10.17,48479,172.217.12.132,443,6,0.036996,2,1,1,132,66,66,27.029949,sSE,0.036996
b8:ac:6f:1d:1f:6c,00:c1:b1:14:eb:31,192.168.10.9,63064,198.54.12.145,443,6,0.059084,2,1,1,120,60,60,16.925056,sSE,0.059084
b8:ac:6f:1d:1f:6c,00:c1:b1:14:eb:31,192.168.10.9,63459,52.70.140.205,80,6,0.050795,2,1,1,126,60,66,19.686977,sSE,0.050795
00:19:b9:0a:69:f1,00:c1:b1:14:eb:31,192.168.10.50,123,206.75.89.101,123,17,0.092745,2,1,1,180,90,90,10.782252,CON,0.092745
00:19:b9:0a:69:f1,00:c1:b1:14:eb:31,192.168.10.50,123,199.182.221.110,123,17,0.071911,2,1,1,180,90,90,13.906078,CON,0.071911
00:23:ae:9b:ad:b3,18:66:da:9b:e3:7d,192.168.10.19,61984,192.168.10.3,53,17,3.627522,4,0,4,276,0,276,0.827011,RSP,3.627522
00:23:ae:9b:ad:b3,18:66:da:9b:e3:7d,192.168.10.19,53106,192.168.10.3,53,17,0.000002,2,0,2,138,0,138,500000.000000,RSP,0.000002
00:23:ae:9b:ad:b3,18:66:da:9b:e3:7d,192.168.10.19,27877,192.168.10.3,53,17,3.627665,4,0,4,276,0,276,0.826978,RSP,3.627665
00:23:ae:9b:ad:b3,18:66:da:9b:e3:7d,192.168.10.19,0x0303,192.168.10.3,0x72cf,1,0.000002,2,2,0,194,194,0,500000.000000,URP,0.000002
00:23:ae:9b:ad:b3,18:66:da:9b:e3:7d,192.168.10.19,10501,192.168.10.3,53,17,0.000002,2,0,2,138,0,138,500000.000000,RSP,0.000002
00:23:ae:9b:ad:b3,18:66:da:9b:e3:7d,192.168.10.19,0x0303,192.168.10.3,0x0529,1,0.000002,2,2,0,194,194,0,500000.000000,URP,0.000002
00:23:ae:9b:ad:b3,18:66:da:9b:e3:7d,192.168.10.19,55338,192.168.10.3,53,17,3.618553,4,2,2,276,138,138,0.829061,CON,3.618553
00:23:ae:9b:ad:b3,18:66:da:9b:e3:7d,192.168.10.19,39829,192.168.10.3,53,17,3.618446,4,2,2,276,138,138,0.829085,CON,3.618446
b8:ac:6f:1d:1f:6c,00:c1:b1:14:eb:31,192.168.10.9,62802,172.217.9.226,80,6,0.036368,2,1,1,126,60,66,27.496700,sSE,0.036368
b8:ac:6f:1d:1f:6c,00:c1:b1:14:eb:31,192.168.10.9,63343,198.57.30.31,80,6,0.036927,2,1,1,120,60,60,27.080456,sSE,0.036927
b8:ac:6f:1d:1f:6c,00:c1:b1:14:eb:31,192.168.10.9,62901,72.21.91.29,80,6,0.023181,2,1,1,126,60,66,43.138775,sSE,0.023181
b8:ac:6f:1d:1f:6c,18:66:da:9b:e3:7d,192.168.10.9,58438,192.168.10.3,53,17,0.000014,4,2,2,440,176,264,214285.718750,CON,0.000014
b8:ac:6f:1d:1f:6c,00:c1:b1:14:eb:31,192.168.10.9,62758,52.84.143.148,80,6,0.022137,2,1,1,126,60,66,45.173241,sSE,0.022137
b8:ac:6f:1d:1f:6c,00:c1:b1:14:eb:31,192.168.10.9,63603,52.167.223.46,443,6,1.463701,24,12,12,5819,1613,4206,15.713592,sSE,1.463701
b8:ac:6f:1d:1f:6c,18:66:da:9b:e3:7d,192.168.10.9,62959,192.168.10.3,53,17,0.000231,4,2,2,352,146,206,12987.012695,CON,0.000231
b8:ac:6f:1d:1f:6c,18:66:da:9b:e3:7d,192.168.10.9,62002,192.168.10.3,53,17,0.000007,4,2,2,352,146,206,428571.437500,CON,0.000007
b8:ac:6f:1d:1f:6c,00:c1:b1:14:eb:31,192.168.10.9,63250,23.208.218.66,443,6,0.038750,2,1,1,126,60,66,25.806452,sSE,0.038750
b8:ac:6f:1d:1f:6c,18:66:da:9b:e3:7d,192.168.10.9,55249,192.168.10.3,53,17,0.083766,4,2,2,492,144,348,35.814053,CON,0.083766
18:66:da:9b:e3:7d,00:c1:b1:14:eb:31,192.168.10.3,61460,192.168.10.1,53,17,0.083267,2,1,1,265,106,159,12.009559,CON,0.083267
b8:ac:6f:1d:1f:6c,18:66:da:9b:e3:7d,192.168.10.9,55070,192.168.10.3,53,17,0.093099,4,2,2,418,152,266,32.223763,CON,0.093099
18:66:da:9b:e3:7d,00:c1:b1:14:eb:31,192.168.10.3,62240,192.168.10.1,53,17,0.092666,2,1,1,212,98,114,10.791445,CON,0.092666
b8:ac:6f:1d:1f:6c,18:66:da:9b:e3:7d,192.168.10.9,56121,192.168.10.3,53,17,0.000152,4,2,2,376,172,204,19736.843750,CON,0.000152
b8:ac:6f:1d:1f:6c,18:66:da:9b:e3:7d,192.168.10.9,58188,192.168.10.3,53,17,0.060395,4,2,2,456,172,284,49.672989,CON,0.060395
18:66:da:9b:e3:7d,00:c1:b1:14:eb:31,192.168.10.3,61944,192.168.10.1,53,17,0.060006,2,1,1,250,97,153,16.665001,CON,0.060006
00:1e:4f:d4:ca:28,00:c1:b1:14:eb:31,192.168.10.15,50077,200.196.157.197,443,6,0.164592,2,1,1,120,60,60,6.075630,sSE,0.164592
b8:ac:6f:1d:1f:6c,18:66:da:9b:e3:7d,192.168.10.9,65122,192.168.10.3,53,17,0.047227,4,2,2,694,152,542,63.522987,CON,0.047227
18:66:da:9b:e3:7d,00:c1:b1:14:eb:31,192.168.10.3,61106,192.168.10.1,53,17,0.046843,2,1,1,369,87,282,21.347906,CON,0.046843
b8:ac:6f:1d:1f:6c,18:66:da:9b:e3:7d,192.168.10.9,62709,192.168.10.3,53,17,0.049407,4,2,2,414,168,246,60.720139,CON,0.049407
b8:ac:6f:1d:1f:6c,18:66:da:9b:e3:7d,192.168.10.9,49392,192.168.10.3,53,17,0.047610,4,2,2,414,168,246,63.011974,CON,0.047610
18:66:da:9b:e3:7d,00:c1:b1:14:eb:31,192.168.10.3,61432,192.168.10.1,53,17,0.049028,2,1,1,229,95,134,20.396507,CON,0.049028
18:66:da:9b:e3:7d,00:c1:b1:14:eb:31,192.168.10.3,60252,192.168.10.1,53,17,0.047142,2,1,1,229,95,134,21.212507,CON,0.047142
b8:ac:6f:1d:1f:6c,18:66:da:9b:e3:7d,192.168.10.9,53641,192.168.10.3,53,17,0.000177,4,2,2,380,174,206,16949.152344,CON,0.000177
b8:ac:6f:1d:1f:6c,18:66:da:9b:e3:7d,192.168.10.9,54862,192.168.10.3,53,17,0.000185,4,2,2,720,232,488,16216.216797,CON,0.000185
b8:ac:6f:1d:1f:6c,18:66:da:9b:e3:7d,192.168.10.9,57533,192.168.10.3,53,17,0.000198,4,2,2,344,156,188,15151.515625,CON,0.000198
b8:ac:6f:1d:1f:6c,18:66:da:9b:e3:7d,192.168.10.9,54801,192.168.10.3,53,17,0.047700,4,2,2,442,156,286,62.893082,CON,0.047700
18:66:da:9b:e3:7d,00:c1:b1:14:eb:31,192.168.10.3,61505,192.168.10.1,53,17,0.047110,2,1,1,243,89,154,21.226915,CON,0.047110
b8:ac:6f:1d:1f:6c,18:66:da:9b:e3:7d,192.168.10.9,51070,192.168.10.3,53,17,0.046808,4,2,2,442,156,286,64.091606,CON,0.046808
b8:ac:6f:1d:1f:6c,00:c1:b1:14:eb:31,192.168.10.9,63576,195.142.107.70,443,6,3.917457,31,15,16,12324,7692,4632,7.658029,sSE,3.917457
b8:ac:6f:1d:1f:6c,00:c1:b1:14:eb:31,192.168.10.9,63575,69.4.95.11,80,6,2.480716,17,11,6,6878,4659,2219,6.449751,sSE,2.480716
b8:ac:6f:1d:1f:6c,00:c1:b1:14:eb:31,192.168.10.9,62774,74.121.138.87,80,6,0.023798,2,1,1,126,60,66,42.020336,sSE,0.023798
b8:ac:6f:1d:1f:6c,00:c1:b1:14:eb:31,192.168.10.9,63239,52.2.96.185,80,6,0.050644,2,1,1,126,60,66,19.745676,sSE,0.050644
b8:ac:6f:1d:1f:6c,00:c1:b1:14:eb:31,192.168.10.9,63342,173.241.242.220,80,6,0.129655,4,2,2,240,120,120,23.138329,sSEfF,0.129655
b8:ac:6f:1d:1f:6c,00:c1:b1:14:eb:31,192.168.10.9,63572,195.142.107.70,80,6,0.141062,4,2,2,240,120,120,21.267242,sSEf,0.141062
b8:ac:6f:1d:1f:6c,00:c1:b1:14:eb:31,192.168.10.9,63448,52.84.145.67,443,6,0.022292,2,1,1,126,60,66,44.859142,sSE,0.022292
b8:ac:6f:1d:1f:6c,18:66:da:9b:e3:7d,192.168.10.9,62457,192.168.10.3,53,17,0.024228,4,2,2,734,150,584,123.823677,CON,0.024228
b8:ac:6f:1d:1f:6c,18:66:da:9b:e3:7d,192.168.10.9,64254,192.168.10.3,53,17,0.000161,4,2,2,352,146,206,18633.539062,CON,0.000161
b8:ac:6f:1d:1f:6c,18:66:da:9b:e3:7d,192.168.10.9,55863,192.168.10.3,53,17,0.000207,4,2,2,440,156,284,14492.752930,CON,0.000207
18:66:da:9b:e3:7d,00:c1:b1:14:eb:31,192.168.10.3,60801,192.168.10.1,53,17,0.023725,2,1,1,368,120,248,42.149632,CON,0.023725
b8:ac:6f:1d:1f:6c,18:66:da:9b:e3:7d,192.168.10.9,60829,192.168.10.3,53,17,0.000216,4,2,2,352,146,206,13888.888672,CON,0.000216
b8:ac:6f:1d:1f:6c,18:66:da:9b:e3:7d,192.168.10.9,63861,192.168.10.3,53,17,0.000210,4,2,2,440,156,284,14285.714844,CON,0.000210
b8:ac:6f:1d:1f:6c,00:c1:b1:14:eb:31,192.168.10.9,63405,54.165.235.75,80,6,0.050583,2,1,1,126,60,66,19.769487,sSE,0.050583
b8:ac:6f:1d:1f:6c,00:c1:b1:14:eb:31,192.168.10.9,63604,50.63.243.230,80,6,0.032702,3,2,1,186,126,60,61.158340,sSE,0.032702
b8:ac:6f:1d:1f:6c,00:c1:b1:14:eb:31,192.168.10.9,63605,50.63.243.230,80,6,1.197178,11,5,6,3346,726,2620,8.352977,sSEfF,1.197178
b8:ac:6f:1d:1f:6c,00:c1:b1:14:eb:31,192.168.10.9,63574,195.142.107.75,443,6,1.339066,6,3,3,407,227,180,3.733946,sSEfF,1.339066
b8:ac:6f:1d:1f:6c,00:c1:b1:14:eb:31,192.168.10.9,63606,162.208.20.178,80,6,0.085378,3,2,1,192,126,66,23.425240,sSE,0.085378
b8:ac:6f:1d:1f:6c,00:c1:b1:14:eb:31,192.168.10.9,63607,162.208.20.178,80,6,0.085701,3,2,1,192,126,66,23.336950,sSE,0.085701
b8:ac:6f:1d:1f:6c,00:c1:b1:14:eb:31,192.168.10.9,63608,178.250.0.78,443,6,1.247674,14,7,7,4325,775,3550,10.419389,sSE,1.247674
b8:ac:6f:1d:1f:6c,00:c1:b1:14:eb:31,192.168.10.9,63609,162.208.20.178,80,6,0.978140,9,5,4,2021,697,1324,8.178788,sSE,0.978140
b8:ac:6f:1d:1f:6c,00:c1:b1:14:eb:31,192.168.10.9,63610,162.208.20.178,80,6,0.898836,9,5,4,2021,697,1324,8.900400,sSE,0.898836
b8:ac:6f:1d:1f:6c,18:66:da:9b:e3:7d,192.168.10.9,50393,192.168.10.3,53,17,0.000196,4,2,2,692,218,474,15306.123047,CON,0.000196
b8:ac:6f:1d:1f:6c,00:c1:b1:14:eb:31,192.168.10.9,63611,195.142.107.70,80,6,0.726157,7,4,3,1455,895,560,8.262676,sSE,0.726157
b8:ac:6f:1d:1f:6c,00:c1:b1:14:eb:31,192.168.10.9,63418,54.192.36.150,443,6,0.029752,2,1,1,126,60,66,33.611187,sSE,0.029752
b8:ac:6f:36:0b:a8,18:66:da:9b:e3:7d,192.168.10.51,60175,192.168.10.3,53,17,0.000228,4,2,2,436,148,288,13157.894531,CON,0.000228
b8:ac:6f:36:0b:a8,18:66:da:9b:e3:7d,192.168.10.51,21981,192.168.10.3,53,17,0.000151,4,2,2,428,148,280,19867.548828,CON,0.000151
b8:ac:6f:36:0b:a8,00:c1:b1:14:eb:31,192.168.10.51,47169,209.85.201.108,465,6,2.210043,47,21,26,9106,2874,6232,20.814075,sSEfFR,2.210043
b8:ac:6f:1d:1f:6c,00:c1:b1:14:eb:31,192.168.10.9,63433,8.41.222.241,80,6,0.032240,2,1,1,120,60,60,31.017370,sSE,0.032240
b8:ac:6f:1d:1f:6c,00:c1:b1:14:eb:31,192.168.10.9,63417,54.192.36.150,443,6,0.029545,2,1,1,126,60,66,33.846676,sSE,0.029545
b8:ac:6f:1d:1f:6c,18:66:da:9b:e3:7d,192.168.10.9,58063,192.168.10.3,53,17,0.024004,4,2,2,536,168,368,124.979172,CON,0.024004
18:66:da:9b:e3:7d,00:c1:b1:14:eb:31,192.168.10.3,61336,192.168.10.1,53,17,0.023619,2,1,1,204,94,110,42.338795,CON,0.023619
b8:ac:6f:1d:1f:6c,18:66:da:9b:e3:7d,192.168.10.9,65468,192.168.10.3,53,17,0.000152,4,2,2,364,166,198,19736.843750,CON,0.000152
00:1e:4f:d4:ca:28,00:c1:b1:14:eb:31,192.168.10.15,50067,172.217.10.142,443,6,0.087704,4,2,2,320,160,160,34.205963,sSE,0.087704
b8:ac:6f:1d:1f:6c,18:66:da:9b:e3:7d,192.168.10.9,53471,192.168.10.3,53,17,0.000246,4,2,2,352,146,206,12195.121094,CON,0.000246
b8:ac:6f:1d:1f:6c,18:66:da:9b:e3:7d,192.168.10.9,55681,192.168.10.3,53,17,0.000197,4,2,2,352,146,206,15228.426758,CON,0.000197
b8:ac:6f:36:07:ee,00:c1:b1:14:eb:31,192.168.10.14,51747,52.84.145.42,443,6,0.022051,2,1,1,126,60,66,45.349419,sSE,0.022051
b8:ac:6f:1d:1f:6c,00:c1:b1:14:eb:31,192.168.10.9,63465,34.192.57.170,80,6,0.050955,2,1,1,126,60,66,19.625158,sSE,0.050955
b8:ac:6f:1d:1f:6c,00:c1:b1:14:eb:31,192.168.10.9,63577,195.142.107.70,443,6,2.800085,21,11,10,7874,4863,3011,7.142640,sSE,2.800085
b8:ac:6f:1d:1f:6c,00:c1:b1:14:eb:31,192.168.10.9,63302,152.163.13.79,80,6,0.093699,2,1,1,120,60,60,10.672472,sSE,0.093699
b8:ac:6f:1d:1f:6c,00:c1:b1:14:eb:31,192.168.10.9,63612,74.119.118.86,443,6,1.357129,12,6,6,5675,925,4750,8.105346,sSE,1.357129
b8:ac:6f:1d:1f:6c,00:c1:b1:14:eb:31,192.168.10.9,63613,174.129.242.44,80,6,3.006096,13,7,6,2156,806,1350,3.991889,sSEfF,3.006096
b8:ac:6f:1d:1f:6c,00:c1:b1:14:eb:31,192.168.10.9,63614,199.233.57.18,80,6,0.679936,6,4,2,2088,983,1105,7.353633,sSE,0.679936
b8:ac:6f:1d:1f:6c,00:c1:b1:14:eb:31,192.168.10.9,63615,37.187.168.211,443,6,2.656735,13,8,5,4051,2408,1643,4.516822,sSE,2.656735
b8:ac:6f:1d:1f:6c,00:c1:b1:14:eb:31,192.168.10.9,63580,195.142.107.70,443,6,3.356419,20,10,10,7862,4851,3011,5.660795,sSE,3.356419
b8:ac:6f:1d:1f:6c,00:c1:b1:14:eb:31,192.168.10.9,63579,195.142.107.70,443,6,3.354722,23,11,12,9272,5726,3546,6.557920,sSE,3.354722
b8:ac:6f:1d:1f:6c,00:c1:b1:14:eb:31,192.168.10.9,63581,195.142.107.70,443,6,2.354597,19,9,10,7818,4807,3011,7.644620,sSE,2.354597
b8:ac:6f:1d:1f:6c,00:c1:b1:14:eb:31,192.168.10.9,63578,195.142.107.70,443,6,3.099923,23,11,12,10264,5982,4282,7.096951,sSE,3.099923
b8:ac:6f:36:07:ee,00:c1:b1:14:eb:31,192.168.10.14,51746,52.38.5.243,443,6,0.084594,2,1,1,120,60,60,11.821170,sSE,0.084594
b8:ac:6f:1d:1f:6c,00:c1:b1:14:eb:31,192.168.10.9,63616,184.31.6.135,443,6,2.106095,16,9,7,4134,2084,2050,7.122186,sSE,2.106095
b8:ac:6f:1d:1f:6c,00:c1:b1:14:eb:31,192.168.10.9,63499,23.61.187.27,80,6,0.579536,5,4,1,1148,1088,60,6.902073,sSE,0.579536
b8:ac:6f:1d:1f:6c,00:c1:b1:14:eb:31,192.168.10.9,63081,198.54.12.145,443,6,0.000000,3,1,2,180,60,120,0.000000,sSE,0.000000
b8:ac:6f:1d:1f:6c,00:c1:b1:14:eb:31,192.168.10.9,63473,54.192.36.150,443,6,0.029655,2,1,1,126,60,66,33.721127,sSE,0.029655
00:23:ae:9b:ad:b3,00:c1:b1:14:eb:31,192.168.10.19,123,144.217.163.175,123,17,0.016325,2,1,1,180,90,90,61.255741,CON,0.016325
00:23:ae:9b:ad:b3,00:c1:b1:14:eb:31,192.168.10.19,123,129.128.12.20,123,17,0.092865,2,1,1,180,90,90,10.768320,CON,0.092865
b8:ac:6f:1d:1f:6c,00:c1:b1:14:eb:31,192.168.10.9,63474,54.192.36.150,443,6,0.029442,2,1,1,126,60,66,33.965084,sSE,0.029442
b8:ac:6f:1d:1f:6c,00:c1:b1:14:eb:31,192.168.10.9,63472,54.192.36.150,443,6,0.029349,2,1,1,126,60,66,34.072712,sSE,0.029349
b8:ac:6f:1d:1f:6c,00:c1:b1:14:eb:31,192.168.10.9,63471,54.192.36.150,443,6,0.031009,2,1,1,126,60,66,32.248703,sSE,0.031009
b8:ac:6f:1d:1f:6c,18:66:da:9b:e3:7d,192.168.10.9,61851,192.168.10.3,53,17,0.000213,4,2,2,456,168,288,14084.506836,CON,0.000213
b8:ac:6f:1d:1f:6c,18:66:da:9b:e3:7d,192.168.10.9,52082,192.168.10.3,53,17,0.000169,4,2,2,420,144,276,17751.478516,CON,0.000169
b8:ac:6f:1d:1f:6c,18:66:da:9b:e3:7d,192.168.10.9,51028,192.168.10.3,53,17,0.067014,4,2,2,612,178,434,44.766766,CON,0.067014
b8:ac:6f:1d:1f:6c,18:66:da:9b:e3:7d,192.168.10.9,65364,192.168.10.3,53,17,0.000224,4,2,2,404,186,218,13392.857422,CON,0.000224
18:66:da:9b:e3:7d,00:c1:b1:14:eb:31,192.168.10.3,60911,192.168.10.1,53,17,0.066622,2,1,1,328,100,228,15.010057,CON,0.066622
b8:ac:6f:1d:1f:6c,18:66:da:9b:e3:7d,192.168.10.9,54130,192.168.10.3,53,17,0.046706,4,2,2,424,164,260,64.231575,CON,0.046706
b8:ac:6f:1d:1f:6c,18:66:da:9b:e3:7d,192.168.10.9,54166,192.168.10.3,53,17,0.000248,4,2,2,416,192,224,12096.774414,CON,0.000248
18:66:da:9b:e3:7d,00:c1:b1:14:eb:31,192.168.10.3,60754,192.168.10.1,53,17,0.046270,2,1,1,234,93,141,21.612274,CON,0.046270
b8:ac:6f:1d:1f:6c,00:c1:b1:14:eb:31,192.168.10.9,63044,198.54.12.145,80,6,0.000000,1,1,0,60,60,0,0.000000,sSE,0.000000
b8:ac:6f:1d:1f:6c,18:66:da:9b:e3:7d,192.168.10.9,49213,192.168.10.3,53,17,0.000158,4,2,2,400,168,232,18987.341797,CON,0.000158
b8:ac:6f:1d:1f:6c,00:c1:b1:14:eb:31,192.168.10.9,63039,198.54.12.145,80,6,0.000000,1,1,0,60,60,0,0.000000,sSE,0.000000
b8:ac:6f:1d:1f:6c,00:c1:b1:14:eb:31,192.168.10.9,63315,165.254.34.231,80,6,0.023039,2,1,1,126,60,66,43.404663,sSE,0.023039
b8:ac:6f:1d:1f:6c,18:66:da:9b:e3:7d,192.168.10.9,50513,192.168.10.3,53,17,0.000213,4,2,2,612,178,434,14084.506836,CON,0.000213
b8:ac:6f:1d:1f:6c,00:c1:b1:14:eb:31,192.168.10.9,62589,172.217.9.226,443,6,3.152173,21,9,12,3132,2088,1044,6.344830,sSE,3.152173
b8:ac:6f:1d:1f:6c,00:c1:b1:14:eb:31,192.168.10.9,62639,172.217.12.174,443,6,0.937277,22,9,13,3145,1428,1717,22.405329,sSE,0.937277
b8:ac:6f:1d:1f:6c,00:c1:b1:14:eb:31,192.168.10.9,63305,152.163.13.79,80,6,0.093786,2,1,1,120,60,60,10.662572,sSE,0.093786
b8:ac:6f:1d:1f:6c,00:c1:b1:14:eb:31,192.168.10.9,63257,107.178.240.89,80,6,0.053205,2,1,1,126,60,66,18.795227,sSE,0.053205
b8:ac:6f:1d:1f:6c,00:c1:b1:14:eb:31,192.168.10.9,63304,152.163.13.79,80,6,0.093789,2,1,1,120,60,60,10.662231,sSE,0.093789
b8:ac:6f:1d:1f:6c,00:c1:b1:14:eb:31,192.168.10.9,63303,152.163.13.79,80,6,0.093817,2,1,1,120,60,60,10.659049,sSE,0.093817
b8:ac:6f:1d:1f:6c,18:66:da:9b:e3:7d,192.168.10.9,52967,192.168.10.3,53,17,0.024225,4,2,2,542,164,378,123.839005,CON,0.024225
18:66:da:9b:e3:7d,00:c1:b1:14:eb:31,192.168.10.3,62339,192.168.10.1,53,17,0.023714,2,1,1,293,93,200,42.169182,CON,0.023714
b8:ac:6f:1d:1f:6c,18:66:da:9b:e3:7d,192.168.10.9,55279,192.168.10.3,53,17,0.185022,4,2,2,468,150,318,16.214289,CON,0.185022
18:66:da:9b:e3:7d,00:c1:b1:14:eb:31,192.168.10.3,62240,192.168.10.1,53,17,0.184613,2,1,1,202,93,109,5.416737,CON,0.184613
b8:ac:6f:1d:1f:6c,18:66:da:9b:e3:7d,192.168.10.9,63799,192.168.10.3,53,17,0.090651,4,2,2,616,152,464,33.093956,CON,0.090651
18:66:da:9b:e3:7d,00:c1:b1:14:eb:31,192.168.10.3,60945,192.168.10.1,53,17,0.090161,2,1,1,330,87,243,11.091269,CON,0.090161
b8:ac:6f:1d:1f:6c,00:c1:b1:14:eb:31,192.168.10.9,63458,34.192.57.170,80,6,0.050358,2,1,1,126,60,66,19.857817,sSE,0.050358
b8:ac:6f:1d:1f:6c,18:66:da:9b:e3:7d,192.168.10.9,59264,192.168.10.3,53,17,0.023952,4,2,2,560,166,394,125.250504,CON,0.023952
18:66:da:9b:e3:7d,00:c1:b1:14:eb:31,192.168.10.3,60345,192.168.10.1,53,17,0.023534,2,1,1,214,91,123,42.491714,CON,0.023534
b8:ac:6f:1d:1f:6c,18:66:da:9b:e3:7d,192.168.10.9,63072,192.168.10.3,53,17,0.000006,4,2,2,384,160,224,499999.968750,CON,0.000006
b8:ac:6f:1d:1f:6c,18:66:da:9b:e3:7d,192.168.10.9,51628,192.168.10.3,53,17,0.000201,4,2,2,588,166,422,14925.373047,CON,0.000201
b8:ac:6f:1d:1f:6c,18:66:da:9b:e3:7d,192.168.10.9,51929,192.168.10.3,53,17,0.046889,4,2,2,620,160,460,63.980892,CON,0.046889
18:66:da:9b:e3:7d,00:c1:b1:14:eb:31,192.168.10.3,61174,192.168.10.1,53,17,0.046369,2,1,1,332,91,241,21.566132,CON,0.046369
b8:ac:6f:36:04:e3,00:c1:b1:14:eb:31,192.168.10.12,54368,209.85.201.155,443,6,0.092025,4,2,2,356,178,178,32.599838,sSE,0.092025
